…
    ## `summarise()` has regrouped the output.
    ## ℹ Summaries were computed grouped by URL and Name.Alias.
    ## ℹ Output is grouped by URL.
    ## ℹ Use `summarise(.groups = "drop_last")` to silence this message.
    ## ℹ Use `summarise(.by = c(URL, Name.Alias))` for per-operation grouping
    ##   (`?dplyr::dplyr_by`) instead.

``` r
deathCounts
```

    ## # A tibble: 173 × 3
    ## # Groups:   URL [173]
    ##    URL                                                      Name.Alias numDeaths
    ##    <chr>                                                    <chr>          <int>
    ##  1 http://marvel.wikia.com/2ZP45-9-X-51_(Earth-616)#        "X-51"             1
    ##  2 http://marvel.wikia.com/Abyss_(Ex_Nihilo%27s)_(Earth-61… ""                 6
    ##  3 http://marvel.wikia.com/Adam_Brashear_(Earth-616)#       "Adam Bra…         0
    ##  4 http://marvel.wikia.com/Alani_Ryan_(Earth-616)#          "Alani Ry…         0
    ##  5 http://marvel.wikia.com/Alexander_Summers_(Earth-616)#   "Alex Sum…         0
    ##  6 http://marvel.wikia.com/Alexis_(Earth-616)#              "Alexis"           0
    ##  7 http://marvel.wikia.com/Amadeus_Cho_(Earth-616)#         "Amadeus …         0
    ##  8 http://marvel.wikia.com/America_Chavez_(Earth-616)#      "America …         0
    ##  9 http://marvel.wikia.com/Angelica_Jones_(Earth-616)#      "Angelica…         0
    ## 10 http://marvel.wikia.com/Anthony_Druid_(Earth-616)#       "Anthony …         2
    ## # ℹ 163 more rows

This is the number of deaths each avenger has

``` r
atLeastOnce <- deathCounts |> filter(numDeaths > 0)
atLeastOnce
```

    ## # A tibble: 69 × 3
    ## # Groups:   URL [69]
    ##    URL                                                      Name.Alias numDeaths
    ##    <chr>                                                    <chr>          <int>
    ##  1 http://marvel.wikia.com/2ZP45-9-X-51_(Earth-616)#        "X-51"             1
    ##  2 http://marvel.wikia.com/Abyss_(Ex_Nihilo%27s)_(Earth-61… ""                 6
    ##  3 http://marvel.wikia.com/Anthony_Druid_(Earth-616)#       "Anthony …         2
    ##  4 http://marvel.wikia.com/Anthony_Stark_(Earth-616)        "Anthony …         1
    ##  5 http://marvel.wikia.com/Anthony_Stark_(Earth-96020)#     "Anthony …         1
    ##  6 http://marvel.wikia.com/Ares_(Earth-616)#                "Ares"             2
    ##  7 http://marvel.wikia.com/Barbara_Morse_(Earth-616)#       "Barbara …         1
    ##  8 http://marvel.wikia.com/Benjamin_Grimm_(Earth-616)#      "Benjamin…         1
    ##  9 http://marvel.wikia.com/Cassandra_Lang_(Earth-616)#      "Cassie L…         1
    ## 10 http://marvel.wikia.com/Clint_Barton_(Earth-616)         "Clinton …         2
    ## # ℹ 59 more rows
…
